<?xml version="1.0" encoding="UTF-8"?>
<svg width="12px" height="10px" viewBox="0 0 12 10" version="1.1" xmlns="http://www.w3.org/2000/svg" xmlns:xlink="http://www.w3.org/1999/xlink">
    <!-- Generator: sketchtool 49.3 (51167) - http://www.bohemiancoding.com/sketch -->
    <title>6FB98D30-1192-4261-9AED-8E92ECE7E594</title>
    <desc>Created with sketchtool.</desc>
    <defs></defs>
    <g id="Page-1" stroke="none" stroke-width="1" fill="none" fill-rule="evenodd">
        <g id="Landing-Page" transform="translate(-920.000000, -713.000000)" fill="#FFFFFF">
            <g id="Wrapper" transform="translate(-283.000000, -358.000000)">
                <g id="Hero" transform="translate(283.000000, 358.000000)">
                    <g id="Card" transform="translate(170.000000, 505.000000)">
                        <g id="Button-Primary" transform="translate(558.000000, 181.000000)">
                            <path d="M196.787071,34.47334 L196.787071,27.4215035 C196.787071,26.8843914 197.222486,26.448976 197.759598,26.448976 C198.29671,26.448976 198.732126,26.8843914 198.732126,27.4215035 L198.732126,34.3511601 L200.890816,32.1924701 C201.270611,31.8126745 201.886382,31.8126745 202.266177,32.1924701 C202.645973,32.5722657 202.645973,33.1880361 202.266177,33.5678317 L198.218635,37.3365143 C197.931622,37.603753 197.493207,37.6235435 197.183283,37.3832511 C197.043382,37.2747819 196.899209,37.1523066 196.750766,37.0158252 C196.199814,36.5092722 194.894849,35.2616182 192.835871,33.2728633 C192.456075,32.8930677 192.456075,32.2772973 192.835871,31.8975017 C193.215666,31.5177061 193.831437,31.5177061 194.211232,31.8975017 L196.787071,34.47334 Z" id="arrow-left-white" transform="translate(197.551024, 32.000000) rotate(-90.000000) translate(-197.551024, -32.000000) "></path>
                        </g>
                    </g>
                </g>
            </g>
        </g>
    </g>
</svg>