<?xml version="1.0" encoding="UTF-8"?>
<svg width="375px" height="265px" viewBox="0 0 375 265" version="1.1" xmlns="http://www.w3.org/2000/svg" xmlns:xlink="http://www.w3.org/1999/xlink">
    <!-- Generator: sketchtool 50.2 (55047) - http://www.bohemiancoding.com/sketch -->
    <title>27B19D93-EE27-4883-9996-69DE7423212E</title>
    <desc>Created with sketchtool.</desc>
    <defs></defs>
    <g id="Page-1" stroke="none" stroke-width="1" fill="none" fill-rule="evenodd">
        <g id="Landing-Page-Mobile" transform="translate(0.000000, -14382.000000)" fill="#2EC3F3">
            <g id="Footer" transform="translate(-17.000000, 14382.000000)">
                <path d="M0,265 L0,25.0169492 C47.15608,8.33898305 108.419969,0 194.930556,0 C281.441142,0 353.84392,8.33898305 401,25.0169492 L401,265 L0,265 Z" id="Base-Border"></path>
            </g>
        </g>
    </g>
</svg>