<?xml version="1.0" encoding="UTF-8"?>
<svg preserveAspectRatio="none slice" width="1440px" height="947px" viewBox="0 0 1440 947" version="1.1" xmlns="http://www.w3.org/2000/svg" xmlns:xlink="http://www.w3.org/1999/xlink">
    <!-- Generator: sketchtool 49.3 (51167) - http://www.bohemiancoding.com/sketch -->
    <title>719E2CEE-52E2-4483-9A90-8AE7E3B88B57</title>
    <desc>Created with sketchtool.</desc>
    <defs>
        <path d="M0,1083 L0,246.688312 C169.338542,172.896104 409.338542,136 720,136 C1030.66146,136 1270.66146,172.896104 1440,246.688312 L1440,1083 L0,1083 Z" id="path-1"></path>
    </defs>
    <g id="Page-1" stroke="none" stroke-width="1" fill="none" fill-rule="evenodd">
        <g id="Landing-Page" transform="translate(0.000000, -9125.000000)">
            <g id="Wrapper" transform="translate(-264.000000, -358.000000)">
                <g id="Faq" transform="translate(264.000000, 9347.000000)">
                    <g id="Base-Border">
                        <use fill="#121E2D" fill-rule="evenodd" xlink:href="#path-1"></use>
                        <path d="M0,1083 L0,246.688312 C169.338542,172.896104 409.338542,136 720,136 C1030.66146,136 1270.66146,172.896104 1440,246.688312 L1440,1083 L0,1083 Z"></path>
                    </g>
                </g>
            </g>
        </g>
    </g>
</svg>