<?xml version="1.0" encoding="UTF-8"?>
<svg width="115px" height="35px" viewBox="0 0 115 35" version="1.1" xmlns="http://www.w3.org/2000/svg" xmlns:xlink="http://www.w3.org/1999/xlink">
    <!-- Generator: sketchtool 49.3 (51167) - http://www.bohemiancoding.com/sketch -->
    <title>7190E182-AAE9-4F7B-9C8C-321C65756838</title>
    <desc>Created with sketchtool.</desc>
    <defs>
        <polygon id="path-1" points="0 34.355 118.094 34.355 118.094 -7.10542736e-15 0 -7.10542736e-15"></polygon>
    </defs>
    <g id="Page-1" stroke="none" stroke-width="1" fill="none" fill-rule="evenodd">
        <g id="Landing-Page" transform="translate(-1015.000000, -8104.000000)">
            <g id="Wrapper" transform="translate(-283.000000, -358.000000)">
                <g id="Partners" transform="translate(448.000000, 8329.000000)">
                    <g id="Group-16" transform="translate(0.000000, 95.000000)">
                        <g id="Group-14-Copy" transform="translate(753.000000, 4.000000)">
                            <g id="excoin" transform="translate(97.000000, 34.000000)">
                                <path d="M14.5571,5.688 L16.2621,8.585 C17.4621,10.697 18.3741,12.329 19.2381,14.057 L26.7271,1 L31.5271,1 L22.6861,16.746 L31.7671,33.355 L26.9191,33.355 M24.3721,28.942 L22.7901,26.202 C21.1101,23.466 20.0541,21.69 19.0461,19.818 L11.5571,33.355 L6.7571,33.355 L15.6461,16.985 L7.1411,1 L11.9901,1" id="Stroke-1" stroke="#F18220" stroke-width="2"></path>
                                <polygon id="Fill-3" fill="#F18220" points="26.0824 31.1499 23.8894 30.1459 21.6964 29.1409 23.6624 27.7449 25.6284 26.3469 25.8554 28.7489"></polygon>
                                <polygon id="Fill-5" fill="#F18220" points="17.6703 5.7725 15.5573 6.9365 13.4433 8.0995 13.4923 5.6885 13.5413 3.2765 15.6063 4.5245"></polygon>
                                <mask id="mask-2" fill="white">
                                    <use xlink:href="#path-1"></use>
                                </mask>
                                <g id="Clip-7"></g>
                                <text mask="url(#mask-2)" font-family="Ubuntu" font-size="28" font-weight="normal" fill="#88929E">
                                    <tspan x="36.3906" y="24.4664385">e</tspan>
                                    <tspan x="52.0426" y="24.4664385" letter-spacing="-0.588">x</tspan>
                                    <tspan x="65.1746" y="24.4664385" letter-spacing="-0.364">c</tspan>
                                    <tspan x="77.4666" y="24.4664385">oin</tspan>
                                </text>
                                <polyline id="Stroke-8" stroke="#F18220" stroke-width="2" mask="url(#mask-2)" points="31.727 1 36.527 1 27.686 16.746 36.768 33.355 31.919 33.355"></polyline>
                                <polyline id="Stroke-9" stroke="#F18220" stroke-width="2" mask="url(#mask-2)" points="6.727 33.355 1.927 33.355 10.768 17.609 1.686 1 6.535 1"></polyline>
                            </g>
                        </g>
                    </g>
                </g>
            </g>
        </g>
    </g>
</svg>