<?xml version="1.0" encoding="UTF-8"?>
<svg width="32px" height="32px" viewBox="0 0 32 32" version="1.1" xmlns="http://www.w3.org/2000/svg" xmlns:xlink="http://www.w3.org/1999/xlink">
    <!-- Generator: sketchtool 49.3 (51167) - http://www.bohemiancoding.com/sketch -->
    <title>0DC5D613-F2C1-46C7-91D5-159ECC356540</title>
    <desc>Created with sketchtool.</desc>
    <defs></defs>
    <g id="Page-1" stroke="none" stroke-width="1" fill="none" fill-rule="evenodd">
        <g id="Landing-Page" transform="translate(-1374.000000, -37.000000)" fill="#FFFFFF" fill-rule="nonzero">
            <g id="Wrapper" transform="translate(-264.000000, -358.000000)">
                <g id="Hero" transform="translate(264.000000, 358.000000)">
                    <g id="Top-Bar" transform="translate(32.000000, 22.000000)">
                        <g id="Language-Picker" transform="translate(1272.000000, 15.000000)">
                            <g id="icons8-globe" transform="translate(70.000000, 0.000000)">
                                <path d="M16,0 C7.1792368,0 0,7.1792368 0,16 C0,24.8207627 7.1792368,32 16,32 C24.8207627,32 32,24.8207627 32,16 C32,7.1792368 24.8207627,0 16,0 Z M14.6666667,2.7317708 L14.6666667,5.33333333 L12,5.33333333 L12,3.2760416 C12.85422,3.0089472 13.7472827,2.82261 14.6666667,2.7317708 Z M17.3333333,2.7317708 C19.639052,2.95958587 21.766884,3.7768932 23.5729173,5.02343747 L22.6666667,5.33333333 L22.6666667,6.66666667 L21.3333333,6.66666667 L20,8 L20,10.6666667 L22.6666667,9.33333333 L26.6666667,10.6666667 L25.3333333,13.3333333 L22.6666667,12 L20,12 L17.3333333,14.6666667 L17.3333333,17.3333333 L20,20 L22.6666667,20 L24,22.6666667 L21.190104,28.2890627 C19.5956027,28.961116 17.8428493,29.3333333 16,29.3333333 C15.5098213,29.3333333 15.0283533,29.3038147 14.5520827,29.252604 L11.9531253,26.7135413 L12,21.3333333 L8,17.3333333 L4,17.3333333 L4,14.6666667 L10.6666667,10.6666667 L10.6666667,8 L13.3333333,8 L14.6666667,9.33333333 L17.3333333,8 L17.3333333,2.7317708 Z" id="Shape"></path>
                            </g>
                        </g>
                    </g>
                </g>
            </g>
        </g>
    </g>
</svg>