<?xml version="1.0" encoding="UTF-8"?>
<svg width="128px" height="128px" viewBox="0 0 128 128" version="1.1" xmlns="http://www.w3.org/2000/svg" xmlns:xlink="http://www.w3.org/1999/xlink">
    <!-- Generator: sketchtool 49.3 (51167) - http://www.bohemiancoding.com/sketch -->
    <title>ED3C9932-7E4C-4A29-89F1-A6009A8ECDBA</title>
    <desc>Created with sketchtool.</desc>
    <defs></defs>
    <g id="Page-1" stroke="none" stroke-width="1" fill="none" fill-rule="evenodd">
        <g id="Landing-Page" transform="translate(-762.000000, -1287.000000)" fill-rule="nonzero">
            <g id="Wrapper" transform="translate(-283.000000, -358.000000)">
                <g id="Subhero" transform="translate(283.000000, 1046.000000)">
                    <g id="Available-Crypto" transform="translate(270.000000, 520.000000)">
                        <g id="Litecoin" transform="translate(492.000000, 79.000000)">
                            <path d="M128,63.9996112 C128,99.3460165 99.3466199,128 64.0003888,128 C28.6537688,128 0,99.3460165 0,63.9996112 C0,28.6535948 28.6537688,0 64.0003888,0 C99.3462312,0 128,28.6535948 128,63.9996112" id="Shape" fill="#BEBEBE"></path>
                            <path d="M115.2,64.8003887 C115.2,92.6335667 92.635423,115.2 64.800583,115.2 C36.9661316,115.2 14.4,92.6335667 14.4,64.8003887 C14.4,36.9648786 36.9661316,14.4 64.800583,14.4 C92.6358117,14.4 115.2,36.96449 115.2,64.8003887" id="Shape" fill="#BEBEBE"></path>
                            <polyline id="Shape" fill="#FFFFFF" points="60.3045505 81.8191789 64.4117578 66.1664324 74.1356949 62.5708569 76.5543878 53.3717972 76.4718058 53.1435992 66.8999733 56.6828056 73.7965324 30.4 54.2376527 30.4 45.2185436 64.6996677 37.6882155 67.483916 35.2 76.9675428 42.7245666 74.1856271 37.4089731 94.4 89.4629181 94.4 92.8 81.8191789 60.3045505 81.8191789"></polyline>
                        </g>
                    </g>
                </g>
            </g>
        </g>
    </g>
</svg>