<?xml version="1.0" encoding="UTF-8"?>
<svg width="168px" height="54px" viewBox="0 0 168 54" version="1.1" xmlns="http://www.w3.org/2000/svg" xmlns:xlink="http://www.w3.org/1999/xlink">
    <!-- Generator: sketchtool 49.3 (51167) - http://www.bohemiancoding.com/sketch -->
    <title>28B8A9A5-4949-48C1-AD23-7DD6DAEFCBD4</title>
    <desc>Created with sketchtool.</desc>
    <defs></defs>
    <g id="Page-1" stroke="none" stroke-width="1" fill="none" fill-rule="evenodd">
        <g id="Landing-Page" transform="translate(-636.000000, -8097.000000)" fill-rule="nonzero">
            <g id="Wrapper" transform="translate(-283.000000, -358.000000)">
                <g id="Partners" transform="translate(448.000000, 8329.000000)">
                    <g id="Group-16" transform="translate(0.000000, 95.000000)">
                        <g id="Group-14" transform="translate(391.000000, 0.000000)">
                            <g id="smartex" transform="translate(80.000000, 31.000000)">
                                <g id="Group" fill="#CBC27F">
                                    <path d="M50.0367875,25.52852 L28.4262148,4.08291354 C28.0106269,3.67049803 27.4703626,3.42304873 26.8469807,3.42304873 C26.2651576,3.42304873 25.6833345,3.62925648 25.2677465,4.08291354 L12.4676381,16.7853112 C11.5949034,17.6513838 11.5949034,19.012355 12.4676381,19.8784275 L27.2210098,34.5191781 L29.7560962,32.0034435 L30.1301254,39.7568551 L22.3170722,39.3856811 L24.8521586,36.8699465 L10.0987869,22.229196 C9.05981701,21.1981572 8.4779939,19.7959444 8.4779939,18.3112486 C8.4779939,16.8265528 9.05981701,15.42434 10.0987869,14.3933013 L22.8988953,1.69090359 C23.9378651,0.659864815 25.3508641,0.0824831019 26.8469807,0.0824831019 C28.3430973,0.0824831019 29.7560962,0.659864815 30.7950661,1.69090359 L52.4056388,23.0952685 C53.4446086,24.1263073 54.0264317,25.52852 54.0264317,27.0132159 C54.0264317,28.4979117 53.4446086,29.9001244 52.4056388,30.9311632 L47.0861132,36.2100817 L47.2107896,35.7976662 C47.5432599,34.5191781 47.3770247,33.1582069 46.7536428,32.0034435 L46.712084,31.9209604 L50.0783463,28.5803948 C50.9095222,27.7555638 50.9095222,26.353351 50.0367875,25.52852 Z" id="Shape"></path>
                                    <path d="M1.66235175,22.8478192 L6.98187733,17.5689007 L6.85720095,18.0225578 C6.5247306,19.3010458 6.69096577,20.662017 7.31434768,21.8167804 L7.35590647,21.8992635 L3.98964419,25.2398292 C3.57405625,25.6522447 3.32470349,26.1883848 3.32470349,26.8070081 C3.32470349,27.3843898 3.53249746,27.9617715 3.98964419,28.374187 L25.6002169,49.8197935 C26.0158048,50.232209 26.5560691,50.4384168 27.179451,50.4384168 C27.7612741,50.4384168 28.3430973,50.1909675 28.7586852,49.8197935 L41.5587936,37.1173958 C41.9743816,36.7049803 42.2237343,36.1688402 42.2237343,35.5502169 C42.2237343,34.9728352 41.9743816,34.3954535 41.5587936,33.983038 L26.8054219,19.3422874 L24.2703355,21.858022 L23.8963063,14.1046104 L31.7093595,14.4757844 L29.1742731,16.991519 L43.9276449,31.6322696 C46.0887021,33.7768302 46.0887021,37.282362 43.9276449,39.4681642 L31.1275364,52.1705619 C30.0885666,53.2016007 28.6755676,53.7789824 27.179451,53.7789824 C25.6833345,53.7789824 24.2703355,53.2016007 23.2313656,52.1705619 L1.62079295,30.7249554 C-0.540264317,28.5391532 -0.540264317,25.0336214 1.66235175,22.8478192 Z" id="Shape"></path>
                                </g>
                                <path d="M65.5934267,32.6431028 C66.5081424,32.6431028 67.1733901,32.5213651 67.6307479,32.3184688 C68.0465277,32.1155726 68.2544177,31.7503594 68.2544177,31.2228293 C68.2544177,30.7358784 68.0465277,30.3300859 67.5891699,30.005452 C67.1318121,29.680818 66.3834084,29.3561841 65.3439588,28.9503916 C64.7202891,28.7069162 64.1381973,28.50402 63.5976835,28.2199653 C63.0571697,27.9764898 62.5998119,27.6518559 62.2256101,27.3272219 C61.8514082,27.002588 61.5187843,26.5967955 61.3108944,26.1098446 C61.1030045,25.6228937 60.9782706,25.0547843 60.9782706,24.3649371 C60.9782706,23.0258221 61.4772064,21.9301825 62.5166559,21.1591769 C63.5561055,20.3881713 64.928179,19.9823789 66.6744543,19.9823789 C67.5475919,19.9823789 68.4207296,20.0635373 69.2107113,20.2258543 C70.000693,20.3881713 70.6243627,20.5504883 71.0401426,20.672226 L70.4164728,23.4316145 C70.0422709,23.2692976 69.5433351,23.1069806 68.9612434,22.9852429 C68.3791516,22.8635051 67.6723259,22.7823466 66.8823442,22.7823466 C66.1755185,22.7823466 65.5934267,22.9040844 65.1360689,23.1475598 C64.6787111,23.3910353 64.4708212,23.7562485 64.4708212,24.2431994 C64.4708212,24.4866749 64.5123991,24.6895711 64.5955551,24.8924673 C64.6787111,25.0953635 64.845023,25.2576805 65.0529129,25.4199975 C65.2608029,25.5823144 65.5518487,25.7446314 65.8844726,25.9069484 C66.2170965,26.0692654 66.6744543,26.2315823 67.1733901,26.3938993 C68.0049498,26.677954 68.7117755,27.002588 69.2938672,27.2866427 C69.875959,27.5706974 70.3333168,27.8953313 70.7075187,28.2605445 C71.0817205,28.6257577 71.3727664,29.0315501 71.5390784,29.5185011 C71.7053903,30.005452 71.7885463,30.5329821 71.7885463,31.2228293 C71.7885463,32.6431028 71.2480325,33.6981631 70.1670049,34.4285895 C69.0859773,35.1590159 67.5891699,35.5242291 65.5934267,35.5242291 C64.2629312,35.5242291 63.1819037,35.4024913 62.391922,35.1995951 C61.6019403,34.9966989 61.0198485,34.7938027 60.6872247,34.672065 L61.3108944,31.8315179 C61.8098302,32.0344141 62.4335,32.2373104 63.1819037,32.4402066 C63.8471514,32.5619443 64.6787111,32.6431028 65.5934267,32.6431028 Z" id="Shape" fill="#88929E"></path>
                                <path d="M84.1025423,27.420858 C84.1025423,25.8417395 83.8944854,24.7197343 83.519983,24.0132865 C83.1454806,23.3068388 82.3964758,22.9743928 81.3145799,22.9743928 C80.9400775,22.9743928 80.5239637,23.0159486 80.0246271,23.0575043 C79.5252906,23.09906 79.2340109,23.1821715 78.9843427,23.1821715 L78.9843427,35.3580061 L75.4889868,35.3580061 L75.4889868,20.7719381 C76.1547689,20.5641593 77.0286078,20.3979363 78.1521151,20.2317134 C79.2340109,20.0654904 80.3991296,19.9823789 81.6058596,19.9823789 C82.646144,19.9823789 83.4783716,20.1070461 84.1441537,20.3979363 C84.8099358,20.6472708 85.3508837,21.0212726 85.8086089,21.4783858 C86.0166658,21.3121628 86.3079454,21.1459398 86.5992251,20.9797168 C86.9321161,20.8134938 87.3066185,20.6472708 87.681121,20.5226036 C88.0972348,20.3979363 88.5133485,20.2732691 88.9710737,20.1486019 C89.4287989,20.0654904 89.8865241,20.0239346 90.3442492,20.0239346 C91.5093679,20.0239346 92.4664296,20.1901576 93.2570458,20.5226036 C94.0060506,20.8550496 94.6302213,21.3121628 95.0463351,21.9354991 C95.4624489,22.5588353 95.79534,23.265283 95.9617855,24.1379538 C96.128231,25.0106245 96.2114537,25.924851 96.2114537,26.9637447 L96.2114537,35.4411176 L92.7160979,35.4411176 L92.7160979,27.5039695 C92.7160979,25.924851 92.508041,24.8028458 92.1335386,24.096398 C91.7590361,23.3899503 91.0100313,23.0575043 89.9281354,23.0575043 C89.3871875,23.0575043 88.8462396,23.1406158 88.346903,23.3483945 C87.8475665,23.5146175 87.4730641,23.7223963 87.2233958,23.8886193 C87.3898413,24.3872883 87.4730641,24.8859573 87.5562868,25.426182 C87.6395096,25.9664067 87.6395096,26.5481872 87.6395096,27.1715235 L87.6395096,35.5242291 L84.1441537,35.5242291 L84.1441537,27.420858 L84.1025423,27.420858 Z" id="Shape" fill="#88929E"></path>
                                <path d="M105.152722,19.9823789 C106.276652,19.9823789 107.199881,20.1054014 107.962548,20.3924541 C108.725215,20.6795067 109.32732,21.0895819 109.768864,21.5816721 C110.210408,22.0737624 110.531531,22.7298827 110.732233,23.4270106 C110.932935,24.1651459 111.013216,24.9442888 111.013216,25.8464543 L111.013216,34.8681087 C110.491391,34.9911313 109.688584,35.1141539 108.644934,35.278184 C107.601284,35.442214 106.397073,35.5242291 105.072441,35.5242291 C104.189353,35.5242291 103.386545,35.442214 102.664019,35.278184 C101.941492,35.1141539 101.339386,34.8271012 100.817561,34.4580335 C100.295737,34.0889659 99.8943329,33.5968756 99.6133503,32.9817628 C99.3323677,32.36665 99.1718062,31.6285146 99.1718062,30.7263492 C99.1718062,29.8651913 99.3323677,29.1680634 99.6534906,28.5529506 C99.9746136,27.9788453 100.416158,27.4867551 100.978123,27.1176874 C101.540088,26.7486197 102.182334,26.5025746 102.904861,26.3385445 C103.627387,26.1745144 104.390055,26.0924994 105.192862,26.0924994 C105.554125,26.0924994 105.955529,26.1335069 106.356933,26.1745144 C106.758336,26.215522 107.199881,26.297537 107.681565,26.4205596 L107.681565,25.8464543 C107.681565,25.4363791 107.641425,25.0673114 107.561144,24.6982437 C107.480863,24.329176 107.320302,24.0011159 107.079459,23.7550707 C106.838617,23.4680181 106.557635,23.2629805 106.156231,23.0989504 C105.794968,22.9349203 105.313283,22.8529053 104.711177,22.8529053 C103.94851,22.8529053 103.225984,22.8939128 102.583738,23.0169354 C101.941492,23.1399579 101.419667,23.2629805 100.978123,23.4270106 L100.576719,20.6384992 C101.018263,20.4744691 101.620369,20.3514465 102.423176,20.1874165 C103.346405,20.0233864 104.229493,19.9823789 105.152722,19.9823789 Z M105.433704,32.8177327 C106.477354,32.8177327 107.280161,32.7767252 107.801986,32.6537026 L107.801986,28.8400033 C107.601284,28.7989957 107.360442,28.7169807 106.999179,28.6759732 C106.637915,28.6349657 106.236512,28.5939581 105.835108,28.5939581 C105.473845,28.5939581 105.072441,28.6349657 104.711177,28.6759732 C104.349914,28.7169807 103.988651,28.8400033 103.667528,29.0040333 C103.346405,29.1680634 103.105563,29.373101 102.945001,29.6601537 C102.744299,29.9472063 102.664019,30.2752665 102.664019,30.6853417 C102.664019,31.5054921 102.904861,32.0795974 103.426686,32.36665 C103.90837,32.6537026 104.590756,32.8177327 105.433704,32.8177327 Z" id="Shape" fill="#88929E"></path>
                                <path d="M122.294559,23.4593966 C122.014526,23.375613 121.614478,23.2499377 121.134421,23.1661541 C120.654364,23.0404788 120.054292,22.998587 119.414216,22.998587 C119.054173,22.998587 118.654125,23.0404788 118.214073,23.1242623 C117.774021,23.2080459 117.493987,23.2499377 117.333968,23.3337212 L117.333968,35.5242291 L113.973568,35.5242291 L113.973568,21.0296733 C114.613644,20.7783227 115.41374,20.526972 116.413859,20.3175131 C117.373973,20.1080542 118.454102,19.9823789 119.654245,19.9823789 C119.894273,19.9823789 120.134302,19.9823789 120.414335,20.0242706 C120.694368,20.0661624 121.014406,20.1080542 121.29444,20.149946 C121.574473,20.1918378 121.894511,20.2756213 122.174545,20.3175131 C122.454578,20.4012967 122.654602,20.4431884 122.854626,20.526972 L122.294559,23.4593966 Z" id="Shape" fill="#88929E"></path>
                                <path d="M126.555066,16.8611377 L130.099699,16.2819383 L130.099699,20.8327907 L135.543241,20.8327907 L135.543241,23.7287876 L130.099699,23.7287876 L130.099699,29.8517525 C130.099699,31.0515227 130.310689,31.9203218 130.690471,32.4581498 C131.070253,32.9959778 131.745421,33.2442061 132.673777,33.2442061 C133.306747,33.2442061 133.897519,33.1614633 134.403895,33.0373492 C134.910271,32.913235 135.290053,32.7891209 135.585439,32.6650067 L136.176211,35.4368895 C135.754231,35.602375 135.247855,35.7678606 134.572687,35.9747175 C133.897519,36.140203 133.137955,36.2643172 132.209599,36.2643172 C131.112451,36.2643172 130.184095,36.140203 129.466728,35.8506033 C128.749362,35.5610036 128.15859,35.1472898 127.73661,34.6094618 C127.31463,34.0716338 127.019244,33.4096916 126.808254,32.6236353 C126.639462,31.837579 126.555066,30.9687799 126.555066,29.9758667 L126.555066,16.8611377 Z" id="Shape" fill="#88929E"></path>
                                <path d="M138.396476,27.7939894 C138.396476,26.4920543 138.599549,25.3528611 138.96508,24.3764098 C139.330611,23.3999585 139.858601,22.586249 140.508435,21.9352815 C141.158268,21.284314 141.889331,20.7960883 142.701622,20.4706045 C143.513914,20.1451207 144.366821,19.9823789 145.260342,19.9823789 C147.291071,19.9823789 148.87504,20.6333464 150.012249,21.894596 C151.149457,23.1558457 151.718062,25.0273774 151.718062,27.5498766 C151.718062,27.753304 151.718062,27.9567313 151.718062,28.2008442 C151.718062,28.444957 151.677447,28.6483843 151.677447,28.8518117 L141.929945,28.8518117 C142.011174,30.0316904 142.457935,30.9674562 143.188998,31.6184238 C143.92006,32.2693913 145.016654,32.5948751 146.438165,32.5948751 C147.250457,32.5948751 148.022134,32.5135042 148.712582,32.3507623 C149.40303,32.1880204 149.93102,32.0252785 150.337166,31.8625366 L150.783926,34.6698342 C150.580853,34.7512051 150.337166,34.8732615 150.012249,34.9546325 C149.687332,35.0766889 149.321801,35.1580598 148.87504,35.2394308 C148.42828,35.3208017 147.981519,35.4021727 147.494144,35.4428581 C147.006769,35.4835436 146.519394,35.5242291 145.991404,35.5242291 C144.691737,35.5242291 143.554529,35.3208017 142.620393,34.9546325 C141.645643,34.5884632 140.873966,34.0188666 140.264747,33.3272136 C139.655528,32.6355606 139.168153,31.8218511 138.883851,30.8860853 C138.558934,29.909634 138.396476,28.8924972 138.396476,27.7939894 Z M148.306436,26.2479415 C148.306436,25.7597158 148.225207,25.3121757 148.103363,24.9053209 C147.981519,24.4984662 147.778446,24.132297 147.534759,23.8068132 C147.291071,23.4813294 146.966155,23.2372166 146.600623,23.0744747 C146.235092,22.9117328 145.788331,22.7896764 145.300956,22.7896764 C144.772967,22.7896764 144.326206,22.8710474 143.92006,23.0744747 C143.513914,23.2779021 143.188998,23.5220149 142.904695,23.8474987 C142.620393,24.1729824 142.41732,24.5391517 142.254862,24.9460064 C142.092404,25.3528611 142.011174,25.8004013 141.929945,26.207256 L148.306436,26.207256 L148.306436,26.2479415 Z" id="Shape" fill="#88929E"></path>
                                <path d="M160.64141,25.2486256 L163.897797,20.722467 L167.619383,20.722467 L162.459912,27.8175265 C163.517181,29.122365 164.574449,30.4272036 165.547137,31.7728183 C166.519824,33.118433 167.365639,34.3417192 168,35.5242291 L164.109251,35.5242291 C163.940088,35.1572432 163.686344,34.7902574 163.432599,34.3824954 C163.136564,33.9747333 162.840529,33.5261951 162.544493,33.0776568 C162.206167,32.6291186 161.910132,32.1805803 161.529515,31.7320421 C161.191189,31.2835038 160.852863,30.8757418 160.514537,30.4679798 C159.837885,31.2427276 159.161233,32.0990279 158.484581,33.0368806 C157.80793,33.9747333 157.300441,34.7902574 156.835242,35.5242291 L153.198238,35.5242291 C153.494273,34.9533622 153.832599,34.3417192 154.255507,33.7300761 C154.678414,33.118433 155.143612,32.4660138 155.608811,31.8135945 C156.074009,31.1611752 156.581498,30.508756 157.088987,29.8563367 C157.596476,29.2039174 158.103965,28.5922744 158.611454,27.9806313 L153.409692,20.722467 L157.300441,20.722467 L160.64141,25.2486256 Z" id="Shape" fill="#88929E"></path>
                            </g>
                        </g>
                    </g>
                </g>
            </g>
        </g>
    </g>
</svg>